{
  "type": "service_account",
  "project_id": "youtube-basicdata",
  "private_key_id": "28cbc2191e8216f6820316eaa98e260cafeea8c9",
  "private_key": "-----BEGIN PRIVATE KEY-----\nMIIEvQIBADANBgkqhkiG9w0BAQEFAASCBKcwggSjAgEAAoIBAQCsNn44SQLSinqa\nK0gzSiKmLOi9z5uluNHR98VP5/HDLjWVJy42v59A/iJU+3UHzp27GW0LVb91TJzr\nkfxNO4LpyQtV13agXasNDM6mYW2FJtanhifMLm4aEOsv35bYAY3Q5Xzj9VsSt4bI\nP/OjiMix53rbHbQgWYeQzdM9il4ZPMs57oUpS3FjwO3GNqAMWzrmt+u7lXyWHzym\n4sYC1toAsnZSPQLWYdxDJeUxy4tgId4xzxSAkNUc6RIiHa+yWYjElppLIWtvPrP9\nogbN9+OgCDH2m3WXo3Rmeizz0c2If8niWrIxv1YWyCjm2ccOMBtgjEjgbN0E0/RJ\n+QIkEFiRAgMBAAECggEASPdt03tb7skt2VStas3mkHJGyuXEFRuSC1zoBUtJbGGP\n4nqPYjMezvLeqRNCKuSogDXttffG/3ROqKFaPX8RoOzGGMEKSjhl2Umr5WMyfFBQ\ncvqssh6aGAFDJS2fRDakV/ZkTFIRHIUWXpJ6MLgsEPT7YQvc3jgQ8JHFBzYxWI9v\nSQ2jqR7/AbVjYrVwge+eGW1Y+1/6JSj/gbIoSRzK4wc/g1gNyR0NZn7tHxcElWSA\nsvc9vFFh2S/KCTqsuv85Omv21VrNxYcgUNCWN/at47PCg+J0IkrKqUYYAzacQQk8\n0poG5E3L6BAamYDYFrF2BEOrSlWfgd7hwhJAb9XQYQKBgQDhloX64C9fs43qfW7O\np34maLBMosNhYE/b9Tqn60pN0FKOjs1rDxyrK5fMYpeLVCSLZ4phm8+cc96Uswi0\ne2Eo48DCisO8UEvwnkALUogeHuRGOrrelXCXFV5S3KJGruzMjYXRBfKBcxMcGrJd\npkeycZM0bYghJgGIaUjL5ukZSwKBgQDDbeQunu9MnHdo17VGqyZkIw8yJ9uR1Ty2\nOUZgElbkQLpzppojdSfs1j4wIkkiOl7q4CyAQ/qxTFEwuGx46bae7DglLlFpfnz/\ne4xmWLoioj2aiLhR7l5oTjm13YXS5LvxWQvQAHacPMiR+3jlK1dwn/eI/5uNjr1x\nGv2hYldoEwKBgBQy0hRAdn1vKknQqVc/kAAIZ6C1AiF56iybrIDUhHarLHkvOB1Z\n4QtCf/kA6ujCw/LndnB+7vvnNArEbQcb9PsgSWYh3pzB48rLoJhi72UjBvVy1MCR\nSN9+Pk/VCYKirvkxwsWQbsJAd3mQul/AP7MukCulkwbEzGZWZvo61qw5AoGAHsJO\nFtRnH6zE0piY7I2Fll86Rg+l7HcefiPXoslgKb7SWd+QBSKsbQdvdE4BKsT7KYat\nGmcYrw0u/jcYw5MtbigJ0jhPEgaZj/CXMYini0nz3j3EnQiijVI6nRhHtuDPf/Ye\n+NcJ1B9xBiEJbzB6K7zRzhtFFWuw/3tbDiqXTUcCgYEAmDl0amg+rTS43Fygh7rK\nOTb9LQmJsFYY2o/GCUS0go1PKLV7NEUmh6E4C6PyYIZtxLAQyZX3dKUclYznT1op\nUWNMzk3kbI7A8HC2b6ofw+o4TuyjSAZ1KEJYWv9VG4Vicmg0y4WmsHCOvIQkHW4u\nt7qfzqDmN2lq0anDfAaXK3o=\n-----END PRIVATE KEY-----\n",
  "client_email": "youtube-spreadsheets@youtube-basicdata.iam.gserviceaccount.com",
  "client_id": "104174229884553031634",
  "auth_uri": "https://accounts.google.com/o/oauth2/auth",
  "token_uri": "https://oauth2.googleapis.com/token",
  "auth_provider_x509_cert_url": "https://www.googleapis.com/oauth2/v1/certs",
  "client_x509_cert_url": "https://www.googleapis.com/robot/v1/metadata/x509/youtube-spreadsheets%40youtube-basicdata.iam.gserviceaccount.com"
}
